
#Conquer damestear tradegood from country you don't have great relations with
estate_artificers_conquer_damestear = {
	can_select = {
		is_free_or_tributary_trigger = yes
		is_at_war = no
		any_neighbor_country = {
			#num_of_cities = 6
			is_free_or_tributary_trigger = yes
			NOT = { is_subject_of = root }
			NOT = { overlord_of = root }
			NOT = { alliance_with = root }
			NOT = { ROOT = { truce_with = prev } }
			NOT = { 
				has_opinion = {
					who = root
					value = 25
				}
			}
			any_owned_province = { #No need for this agenda if covered by a mission
				trade_goods = damestear
			}
			ROOT = {
				knows_country = prev
			}
			OR = {
				is_part_of_hre = no
				NOT = { hre_reform_passed = landfriede }
				ROOT = { is_part_of_hre = no }
			}
		}
	}
	selection_weight = {
		factor = 1
		modifier = {
			factor = 0.5
			has_non_generic_missions = yes
		}
		modifier = {
			factor = 1.5
			NOT = { damestear = 1 }
		}
		modifier = {
			factor = 1.5
			NOT = { damestear = 3 }
		}
		modifier = {
			factor = 0.25
			any_country = {
				coalition_target = root
			}
		}
	}
	pre_effect = {
		random_neighbor_country = {
			limit = {
				#num_of_cities = 6
				is_free_or_tributary_trigger = yes
				NOT = { is_subject_of = root }
				NOT = { overlord_of = root }
				NOT = { alliance_with = root }
				NOT = { ROOT = { truce_with = prev } }
				NOT = { 
					has_opinion = {
						who = root
						value = 25
					}
				}
				any_owned_province = { #No need for this agenda if covered by a mission
					trade_goods = damestear
				}
				ROOT = {
					knows_country = prev
				}
				OR = {
					is_part_of_hre = no
					NOT = { hre_reform_passed = landfriede }
					ROOT = { is_part_of_hre = no }
				}
			}
			random_owned_province = {
				limit = {
					trade_goods = damestear
				}
				save_event_target_as = agenda_province
			}
			random_owned_province = {
				limit = {
					trade_goods = damestear

					any_neighbor_province = {
						owned_by = root
					}
				}
				save_event_target_as = agenda_province
			}
		}
	}
	immediate_effect = {
		event_target:agenda_province = {
			add_claim = root
		}
	}
	on_invalid = {
		if = {
			limit = {
				event_target:agenda_province = {
					is_claim = root
					NOT = { is_permanent_claim = root }
				}
			}
			event_target:agenda_province = {
				remove_claim = root
			}
		}
		if = {
			limit = {
				event_target:agenda_province = {
					NOT = { trade_goods = damestear }
				}
			}
			event_target:agenda_province = {
				remove_claim = root
			}
		}
	}
	provinces_to_highlight = {
		area_for_scope_province = {
			province_id = event_target:agenda_province
		}
	}
	task_requirements = {
		event_target:agenda_province = {
			owned_by = root
		}
	}
	fail_if = {
		event_target:agenda_province = {
			NOT = { is_claim = root }
			NOT = { is_core = root }
			NOT = { owned_by = root }
		}
	}
	task_completed_effect = {
		add_estate_loyalty = {
			estate = estate_artificers
			loyalty = 20
		}
		add_adm_power = 50
	}
    failing_effect = {
        add_estate_loyalty_modifier = {
            estate = estate_artificers
			desc = EST_VAL_AGENDA_DENIED
			loyalty = -5
			duration = 7300
        }
		if = {
			limit = {
				event_target:agenda_province = {
					is_claim = root
					NOT = { is_permanent_claim = root }
				}
			}
			event_target:agenda_province = {
					remove_claim = root
			}
		}
    }
}

#Conquer precursor relics
estate_artificers_conquer_precursor_relics = {
	can_select = {
		is_free_or_tributary_trigger = yes
		is_at_war = no
		any_neighbor_country = {
			#num_of_cities = 6
			is_free_or_tributary_trigger = yes
			NOT = { is_subject_of = root }
			NOT = { overlord_of = root }
			NOT = { alliance_with = root }
			NOT = { ROOT = { truce_with = prev } }
			NOT = { 
				has_opinion = {
					who = root
					value = 25
				}
			}
			any_owned_province = { #No need for this agenda if covered by a mission
				trade_goods = precursor_relics
			}
			ROOT = {
				knows_country = prev
			}
			OR = {
				is_part_of_hre = no
				NOT = { hre_reform_passed = landfriede }
				ROOT = { is_part_of_hre = no }
			}
		}
	}
	selection_weight = {
		factor = 1
		modifier = {
			factor = 0.5
			has_non_generic_missions = yes
		}
		modifier = {
			factor = 1.5
			NOT = { precursor_relics = 1 }
		}
		modifier = {
			factor = 1.5
			NOT = { precursor_relics = 3 }
		}
		modifier = {
			factor = 0.25
			any_country = {
				coalition_target = root
			}
		}
	}
	pre_effect = {
		random_neighbor_country = {
			limit = {
				#num_of_cities = 6
				is_free_or_tributary_trigger = yes
				NOT = { is_subject_of = root }
				NOT = { overlord_of = root }
				NOT = { alliance_with = root }
				NOT = { ROOT = { truce_with = prev } }
				NOT = { 
					has_opinion = {
						who = root
						value = 25
					}
				}
				any_owned_province = { #No need for this agenda if covered by a mission
					trade_goods = precursor_relics
				}
				ROOT = {
					knows_country = prev
				}
				OR = {
					is_part_of_hre = no
					NOT = { hre_reform_passed = landfriede }
					ROOT = { is_part_of_hre = no }
				}
			}
			random_owned_province = {
				limit = {
					trade_goods = precursor_relics
				}
				save_event_target_as = agenda_province
			}
			random_owned_province = {
				limit = {
					trade_goods = precursor_relics

					any_neighbor_province = {
						owned_by = root
					}
				}
				save_event_target_as = agenda_province
			}
		}
	}
	immediate_effect = {
		event_target:agenda_province = {
			add_claim = root
		}
	}
	on_invalid = {
		if = {
			limit = {
				event_target:agenda_province = {
					is_claim = root
					NOT = { is_permanent_claim = root }
				}
			}
			event_target:agenda_province = {
				remove_claim = root
			}
		}
		if = {
			limit = {
				event_target:agenda_province = {
					NOT = { trade_goods = precursor_relics }
				}
			}
			event_target:agenda_province = {
				remove_claim = root
			}
		}
	}
	provinces_to_highlight = {
		area_for_scope_province = {
			province_id = event_target:agenda_province
		}
	}
	task_requirements = {
		event_target:agenda_province = {
			owned_by = root
		}
	}
	fail_if = {
		event_target:agenda_province = {
			NOT = { is_claim = root }
			NOT = { is_core = root }
			NOT = { owned_by = root }
		}
	}
	task_completed_effect = {
		add_estate_loyalty = {
			estate = estate_artificers
			loyalty = 20
		}
		add_mil_power = 50
	}
    failing_effect = {
        add_estate_loyalty_modifier = {
            estate = estate_artificers
			desc = EST_VAL_AGENDA_DENIED
			loyalty = -5
			duration = 7300
        }
		if = {
			limit = {
				event_target:agenda_province = {
					is_claim = root
					NOT = { is_permanent_claim = root }
				}
			}
			event_target:agenda_province = {
					remove_claim = root
			}
		}
    }
}

#Conquer high production province
estate_artificers_conquer_high_production = {
	can_select = {
		is_free_or_tributary_trigger = yes
		is_at_war = no
		any_neighbor_country = {
			#num_of_cities = 6
			is_free_or_tributary_trigger = yes
			NOT = { is_subject_of = root }
			NOT = { overlord_of = root }
			NOT = { alliance_with = root }
			NOT = { ROOT = { truce_with = prev } }
			NOT = { 
				has_opinion = {
					who = root
					value = 25
				}
			}
			any_owned_province = { #No need for this agenda if covered by a mission
				base_production = 10
			}
			ROOT = {
				knows_country = prev
			}
			OR = {
				is_part_of_hre = no
				NOT = { hre_reform_passed = landfriede }
				ROOT = { is_part_of_hre = no }
			}
		}
	}
	selection_weight = {
		factor = 1
		modifier = {
			factor = 0.5
			has_non_generic_missions = yes
		}
		modifier = {
			factor = 1.5
			NOT = { damestear = 1 }
		}
		modifier = {
			factor = 1.5
			NOT = { damestear = 3 }
		}
		modifier = {
			factor = 0.25
			any_country = {
				coalition_target = root
			}
		}
	}
	pre_effect = {
		random_neighbor_country = {
			limit = {
				#num_of_cities = 6
				is_free_or_tributary_trigger = yes
				NOT = { is_subject_of = root }
				NOT = { overlord_of = root }
				NOT = { alliance_with = root }
				NOT = { ROOT = { truce_with = prev } }
				NOT = { 
					has_opinion = {
						who = root
						value = 25
					}
				}
				any_owned_province = { #No need for this agenda if covered by a mission
					base_production = 10
				}
				ROOT = {
					knows_country = prev
				}
				OR = {
					is_part_of_hre = no
					NOT = { hre_reform_passed = landfriede }
					ROOT = { is_part_of_hre = no }
				}
			}
			random_owned_province = {
				limit = {
					base_production = 10
				}
				save_event_target_as = agenda_province
			}
			random_owned_province = {
				limit = {
					base_production = 15
				}
				save_event_target_as = agenda_province
			}
			random_owned_province = {
				limit = {
					base_production = 20
				}
				save_event_target_as = agenda_province
			}
			random_owned_province = {
				limit = {
					base_production = 10

					any_neighbor_province = {
						owned_by = root
					}
				}
				save_event_target_as = agenda_province
			}
			random_owned_province = {
				limit = {
					base_production = 15

					any_neighbor_province = {
						owned_by = root
					}
				}
				save_event_target_as = agenda_province
			}
			random_owned_province = {
				limit = {
					base_production = 20

					any_neighbor_province = {
						owned_by = root
					}
				}
				save_event_target_as = agenda_province
			}
		}
	}
	immediate_effect = {
		event_target:agenda_province = {
			add_claim = root
		}
	}
	on_invalid = {
		if = {
			limit = {
				event_target:agenda_province = {
					is_claim = root
					NOT = { is_permanent_claim = root }
				}
			}
			event_target:agenda_province = {
				remove_claim = root
			}
		}
		if = {
			limit = {
				event_target:agenda_province = {
					NOT = { base_production = 10 }
				}
			}
			event_target:agenda_province = {
				remove_claim = root
			}
		}
	}
	provinces_to_highlight = {
		area_for_scope_province = {
			province_id = event_target:agenda_province
		}
	}
	task_requirements = {
		event_target:agenda_province = {
			owned_by = root
		}
	}
	fail_if = {
		event_target:agenda_province = {
			NOT = { is_claim = root }
			NOT = { is_core = root }
			NOT = { owned_by = root }
		}
	}
	task_completed_effect = {
		add_estate_loyalty = {
			estate = estate_artificers
			loyalty = 10
		}
	}
    failing_effect = {
        add_estate_loyalty_modifier = {
            estate = estate_artificers
			desc = EST_VAL_AGENDA_DENIED
			loyalty = -5
			duration = 7300
        }
		if = {
			limit = {
				event_target:agenda_province = {
					is_claim = root
					NOT = { is_permanent_claim = root }
				}
			}
			event_target:agenda_province = {
					remove_claim = root
			}
		}
    }
}

#Production building on damestear
estate_artificers_build_production_building_damestear = {
	can_select = {
		adm_tech = 6
		any_owned_province = {
			is_state_core = root
			NOT = { has_building = counting_house }
			OR = {
				AND = {
					NOT = { has_building = workshop }
					num_free_building_slots = 1
				}
				AND = {
					ROOT = { adm_tech = 24 }
					OR = {
						has_building = workshop
						num_free_building_slots = 1
					}
				}
			}
			trade_goods = damestear
		}
	}
	selection_weight = {
		factor = 1
		modifier = {
			factor = 0.65
			NOT = {
				any_owned_province = {
					is_state_core = root
					base_production = 4
					NOT = { has_building = counting_house }
					OR = {
						AND = {
							NOT = { has_building = workshop }
							num_free_building_slots = 1
						}
						AND = {
							ROOT = { adm_tech = 24 }
							OR = {
								has_building = workshop
								num_free_building_slots = 1
							}
						}
					}
					trade_goods = damestear
				}
			}
		}
		modifier = {
			factor = 1.2
			any_owned_province = {
				is_state_core = root
				OR = {
					base_production = 7
					has_building = tradecompany
				}
				NOT = { has_building = counting_house }
				OR = {
					AND = {
						NOT = { has_building = workshop }
						num_free_building_slots = 1
					}
					AND = {
						ROOT = { adm_tech = 24 }
						OR = {
							has_building = workshop
							num_free_building_slots = 1
						}
					}
				}
				trade_goods = damestear
			}
		}
		modifier = {
			factor = 2
			NOT = {
				crown_land_share = 15
			}
		}
	}
	pre_effect = {
		set_variable = {
			which = estate_artificers_build_production_building_in_y_var
			value = 0
		}
		random_owned_province = {
			limit = {
				is_state_core = root
				NOT = { has_building = counting_house }
				OR = {
					AND = {
						NOT = { has_building = workshop }
						num_free_building_slots = 1
					}
					AND = {
						ROOT = { adm_tech = 24 }
						OR = {
							has_building = workshop
							num_free_building_slots = 1
						}
					}
				}
				trade_goods = damestear
			}
			save_event_target_as = agenda_province
		}
		random_owned_province = {
			limit = {
				is_state_core = root
				base_production = 4
				NOT = { has_building = counting_house }
				OR = {
					AND = {
						NOT = { has_building = workshop }
						num_free_building_slots = 1
					}
					AND = {
						ROOT = { adm_tech = 24 }
						OR = {
							has_building = workshop
							num_free_building_slots = 1
						}
					}
				}
				trade_goods = damestear
			}
			save_event_target_as = agenda_province
		}
		random_owned_province = {
			limit = {
				is_state_core = root
				OR = {
					base_production = 7
					has_building = tradecompany
				}
				NOT = { has_building = counting_house }
				OR = {
					AND = {
						NOT = { has_building = workshop }
						num_free_building_slots = 1
					}
					AND = {
						ROOT = { adm_tech = 24 }
						OR = {
							has_building = workshop
							num_free_building_slots = 1
						}
					}
				}
				trade_goods = damestear
			}
			save_event_target_as = agenda_province
		}
		event_target:agenda_province = {
			if = {
				limit = {
					has_building = workshop
				}
				ROOT = {
					set_variable = {
						which = estate_artificers_build_production_building_in_y_var
						value = 2
					}
				}
			}
			else = {
				ROOT = {
					set_variable = {
						which = estate_artificers_build_production_building_in_y_var
						value = 1
					}
				}
			}
		}
	}
	provinces_to_highlight = {
		province_id = event_target:agenda_province
	}
	fail_if = {
		event_target:agenda_province = {
			NOT = { owned_by = root }
		}
	}
    task_requirements = {
		if = {
			limit = {
				check_variable = {
					which = estate_artificers_build_production_building_in_y_var
					value = 2
				}
			}
			event_target:agenda_province = {
				has_building = counting_house
			}
		}
		else = {
			event_target:agenda_province = {
				OR = {
					has_building = workshop
					has_building = counting_house
				}
			}
		}
    }
    task_completed_effect = {
		add_estate_loyalty = {
			estate = estate_artificers
			loyalty = 10
		}
		if = {
			limit = {
				NOT = { crown_land_share = 15 }
				estate_territory = {
					estate = estate_artificers
					territory = 10
				}
			}
			take_estate_land_share_small = { estate = estate_artificers }
		}
		else = {
			event_target:agenda_province = {
				add_base_production = 1
			}
		}
    }
    failing_effect = {
		event_target:agenda_province = {
			if = {
				limit = { owned_by = root }
				add_named_unrest = {
					name = local_artificers_displeased
					value = 5
				}
			}
		}
        add_estate_loyalty_modifier = {
            estate = estate_artificers
			desc = EST_VAL_AGENDA_DENIED
			loyalty = -5
			duration = 7300
        }
    }
}

#Production building on precursor relics
estate_artificers_build_production_building_precursor_relics = {
	can_select = {
		adm_tech = 6
		any_owned_province = {
			is_state_core = root
			NOT = { has_building = counting_house }
			OR = {
				AND = {
					NOT = { has_building = workshop }
					num_free_building_slots = 1
				}
				AND = {
					ROOT = { adm_tech = 24 }
					OR = {
						has_building = workshop
						num_free_building_slots = 1
					}
				}
			}
			trade_goods = precursor_relics
		}
	}
	selection_weight = {
		factor = 1
		modifier = {
			factor = 0.65
			NOT = {
				any_owned_province = {
					is_state_core = root
					base_production = 4
					NOT = { has_building = counting_house }
					OR = {
						AND = {
							NOT = { has_building = workshop }
							num_free_building_slots = 1
						}
						AND = {
							ROOT = { adm_tech = 24 }
							OR = {
								has_building = workshop
								num_free_building_slots = 1
							}
						}
					}
					trade_goods = precursor_relics
				}
			}
		}
		modifier = {
			factor = 1.2
			any_owned_province = {
				is_state_core = root
				OR = {
					base_production = 7
					has_building = tradecompany
				}
				NOT = { has_building = counting_house }
				OR = {
					AND = {
						NOT = { has_building = workshop }
						num_free_building_slots = 1
					}
					AND = {
						ROOT = { adm_tech = 24 }
						OR = {
							has_building = workshop
							num_free_building_slots = 1
						}
					}
				}
				trade_goods = precursor_relics
			}
		}
		modifier = {
			factor = 2
			NOT = {
				crown_land_share = 15
			}
		}
	}
	pre_effect = {
		set_variable = {
			which = estate_artificers_build_production_building_in_y_var
			value = 0
		}
		random_owned_province = {
			limit = {
				is_state_core = root
				NOT = { has_building = counting_house }
				OR = {
					AND = {
						NOT = { has_building = workshop }
						num_free_building_slots = 1
					}
					AND = {
						ROOT = { adm_tech = 24 }
						OR = {
							has_building = workshop
							num_free_building_slots = 1
						}
					}
				}
				trade_goods = precursor_relics
			}
			save_event_target_as = agenda_province
		}
		random_owned_province = {
			limit = {
				is_state_core = root
				base_production = 4
				NOT = { has_building = counting_house }
				OR = {
					AND = {
						NOT = { has_building = workshop }
						num_free_building_slots = 1
					}
					AND = {
						ROOT = { adm_tech = 24 }
						OR = {
							has_building = workshop
							num_free_building_slots = 1
						}
					}
				}
				trade_goods = precursor_relics
			}
			save_event_target_as = agenda_province
		}
		random_owned_province = {
			limit = {
				is_state_core = root
				OR = {
					base_production = 7
					has_building = tradecompany
				}
				NOT = { has_building = counting_house }
				OR = {
					AND = {
						NOT = { has_building = workshop }
						num_free_building_slots = 1
					}
					AND = {
						ROOT = { adm_tech = 24 }
						OR = {
							has_building = workshop
							num_free_building_slots = 1
						}
					}
				}
				trade_goods = precursor_relics
			}
			save_event_target_as = agenda_province
		}
		event_target:agenda_province = {
			if = {
				limit = {
					has_building = workshop
				}
				ROOT = {
					set_variable = {
						which = estate_artificers_build_production_building_in_y_var
						value = 2
					}
				}
			}
			else = {
				ROOT = {
					set_variable = {
						which = estate_artificers_build_production_building_in_y_var
						value = 1
					}
				}
			}
		}
	}
	provinces_to_highlight = {
		province_id = event_target:agenda_province
	}
	fail_if = {
		event_target:agenda_province = {
			NOT = { owned_by = root }
		}
	}
    task_requirements = {
		if = {
			limit = {
				check_variable = {
					which = estate_artificers_build_production_building_in_y_var
					value = 2
				}
			}
			event_target:agenda_province = {
				has_building = counting_house
			}
		}
		else = {
			event_target:agenda_province = {
				OR = {
					has_building = workshop
					has_building = counting_house
				}
			}
		}
    }
    task_completed_effect = {
		add_estate_loyalty = {
			estate = estate_artificers
			loyalty = 10
		}
		if = {
			limit = {
				NOT = { crown_land_share = 15 }
				estate_territory = {
					estate = estate_artificers
					territory = 10
				}
			}
			take_estate_land_share_small = { estate = estate_artificers }
		}
		else = {
			event_target:agenda_province = {
				add_base_production = 1
			}
		}
    }
    failing_effect = {
		event_target:agenda_province = {
			if = {
				limit = { owned_by = root }
				add_named_unrest = {
					name = local_artificers_displeased
					value = 5
				}
			}
		}
        add_estate_loyalty_modifier = {
            estate = estate_artificers
			desc = EST_VAL_AGENDA_DENIED
			loyalty = -5
			duration = 7300
        }
    }
}

#Universities
estate_artificers_build_university_in_y = {
	can_select = {
		adm_tech = 17
		any_owned_province = {
			is_state_core = root
			NOT = { has_building = university }
			OR = {
				development = 10
				is_capital = yes
			}
		}
	}
	selection_weight = {
		factor = 1
		modifier = {
			factor = 0.75
			NOT = {
				any_owned_province = {
					is_state_core = root
					NOT = { has_building = university }
					development = 15
				}
			}
		}
		modifier = {
			factor = 1.2
			any_owned_province = {
				is_state_core = root
				NOT = { has_building = university }
				development = 20
			}
		}
		modifier = {
			factor = 2
			is_institution_enabled = enlightenment
			NOT = { has_institution = enlightenment }
		}
	}
	pre_effect = {
		random_owned_province = {
			limit = {
				is_state_core = root
				NOT = { has_building = university }
				development = 10
			}
			save_event_target_as = agenda_province
		}
		random_owned_province = {
			limit = {
				is_state_core = root
				NOT = { has_building = university }
				development = 15
			}
			save_event_target_as = agenda_province
		}
		random_owned_province = {
			limit = {
				is_state_core = root
				NOT = { has_building = university }
				development = 20
			}
			save_event_target_as = agenda_province
		}
		random_owned_province = {
			limit = {
				is_state_core = root
				NOT = { has_building = university }
				is_capital = yes
			}
			save_event_target_as = agenda_province
		}
	}
	provinces_to_highlight = {
		province_id = event_target:agenda_province
	}
	fail_if = {
		event_target:agenda_province = {
			NOT = { owned_by = root }
		}
	}
    task_requirements = {
		event_target:agenda_province = {
			has_building = university
		}
    }
    task_completed_effect = {
		add_estate_loyalty = {
			estate = estate_artificers
			loyalty = 10
		}
		add_adm_power = 35
		add_dip_power = 35
		add_mil_power = 35
    }
    failing_effect = {
		event_target:agenda_province = {
			if = {
				limit = { owned_by = root }
				add_named_unrest = {
					name = local_artificers_displeased
					value = 5
				}
			}
		}
        add_estate_loyalty_modifier = {
            estate = estate_artificers
			desc = EST_VAL_AGENDA_DENIED
			loyalty = -5
			duration = 7300
        }
    }
}

#Privateer node with damestear or precursor relics
estate_artificers_privateer_damestear_relics = {
	can_select = {
		OR = {
			has_dlc = "Mare Nostrum"
			has_dlc = "Golden Century"
		}
		any_owned_province = {
			has_port = yes
		}
		navy_size = 30
		NOT = {
			any_active_trade_node = {
				privateer_power = {
					share = 30
					country = root
				}
				any_trade_node_member_province = {
					OR = {
						trade_goods = damestear
						trade_goods = precursor_relics
					}
				}
			}
		}
		any_active_trade_node = {
			NOT = {
				trade_share = {
					country = root
					share = 25
				}
			}
			any_trade_node_member_province = {
				has_port = yes
				OR = {
					trade_goods = damestear
					trade_goods = precursor_relics
				}
			}
		}
	}
	selection_weight = {
		factor = 1.5
	}
	pre_effect = {
		random_active_trade_node = {
			limit = {
				NOT = {
					trade_share = {
						country = root
						share = 25
					}
				}
				any_trade_node_member_province = {
					has_port = yes
					OR = {
						trade_goods = damestear
						trade_goods = precursor_relics
					}
				}
			}
			save_event_target_as = agenda_trade_node
		}
		random_active_trade_node = {
			limit = {
				NOT = {
					trade_share = {
						country = root
						share = 25
					}
				}
				privateer_power = {
					share = 1
					country = root
				}
				any_trade_node_member_province = {
					has_port = yes
					OR = {
						trade_goods = damestear
						trade_goods = precursor_relics
					}
				}
			}
			save_event_target_as = agenda_trade_node
		}
		event_target:agenda_trade_node = {
			if = {
				limit = {
					OR = {
						is_sea = yes
						has_port = no
					}
				}
				save_event_target_as = agenda_trade_node_sea
			}
			else = {
				sea_zone = {
					save_event_target_as = agenda_trade_node_sea
				}
			}
		}
	}
	provinces_to_highlight = {
		province_id = event_target:agenda_trade_node
	}
	task_requirements = {
		event_target:agenda_trade_node = {
			privateer_power = {
				share = 30
				country = root
			}
		}
	}
	task_completed_effect = {
		add_estate_loyalty = {
			estate = estate_artificers
			loyalty = 15
		}
	}
	fail_if = {
		NOT = {
			any_owned_province = {
				has_port = yes
			}
		}
	}
    failing_effect = {
        add_estate_loyalty_modifier = {
            estate = estate_artificers
			desc = EST_VAL_AGENDA_DENIED
			loyalty = -5
			duration = 7300
        }
    }
}

#Build manufactory prefering damestear & precursorrelics
estate_artificers_build_manufactory_in_y = {
	can_select = {
		any_owned_province = {
			is_state_core = root
			root_can_build_manufactory_here_trigger = yes
		}
		monthly_income = 30
	}
	selection_weight = {
		factor = 1
		modifier = {
			factor = 0.5
			OR = {
				current_age = age_of_discovery
				current_age = age_of_reformation
			}
		}
		modifier = {
			factor = 0.5
			NOT = { monthly_income = 40 }
		}
		modifier = {
			factor = 2
			monthly_income = 60
		}
		modifier = {
			factor = 2
			is_institution_enabled = manufactories
			NOT = { has_institution = manufactories }
		}
		modifier = {
			factor = 2
			any_owned_province = {
				is_state_core = root
				root_can_build_manufactory_here_trigger = yes
				OR = {
					trade_goods = damestear
					trade_goods = precursor_relics
				}
			}
		}
	}
	pre_effect = {
		random_owned_province = {
			limit = {
				is_state_core = root
				root_can_build_manufactory_here_trigger = yes
			}
			save_event_target_as = agenda_province
		}
		random_owned_province = {
			limit = {
				is_state_core = root
				base_production = 5
				root_can_build_manufactory_here_trigger = yes
			}
			save_event_target_as = agenda_province
		}
		random_owned_province = {
			limit = {
				is_state_core = root
				base_production = 10
				root_can_build_manufactory_here_trigger = yes
			}
			save_event_target_as = agenda_province
		}
		random_owned_province = {
			limit = {
				is_state_core = root
				root_can_build_manufactory_here_trigger = yes
				OR = {
					trade_goods = damestear
					trade_goods = precursor_relics
				}
			}
			save_event_target_as = agenda_province
		}
		random_owned_province = {
			limit = {
				is_state_core = root
				base_production = 5
				root_can_build_manufactory_here_trigger = yes
				OR = {
					trade_goods = damestear
					trade_goods = precursor_relics
				}
			}
			save_event_target_as = agenda_province
		}
		random_owned_province = {
			limit = {
				is_state_core = root
				base_production = 10
				root_can_build_manufactory_here_trigger = yes
				OR = {
					trade_goods = damestear
					trade_goods = precursor_relics
				}
			}
			save_event_target_as = agenda_province
		}
	}
	provinces_to_highlight = {
		province_id = event_target:agenda_province
	}
	fail_if = {
		event_target:agenda_province = {
			NOT = { owned_by = root }
		}
	}
    task_requirements = {
		event_target:agenda_province = {
			custom_trigger_tooltip = {
				tooltip = has_manufactory_trigger_tooltip
				
				if = {
					limit = {
						OR = {
							trade_goods = naval_supplies
							trade_goods = fish
							trade_goods = salt
						}
					}
					has_building = wharf
				}
				else_if = {
					limit = {
						OR = {
							trade_goods = copper
							trade_goods = iron
						}
					}
					has_building = weapons
				}
				else_if = {
					limit = {
						OR = {
							trade_goods = wool
							trade_goods = cloth
							trade_goods = silk
							trade_goods = dyes
						}
					}
					has_building = textile
				}
				else_if = {
					limit = {
						OR = {
							trade_goods = ivory
							trade_goods = slaves
							trade_goods = spices
							trade_goods = fur
							trade_goods = incense
							trade_goods = damestear
							trade_goods = precursor_relics
						}
					}
					has_building = tradecompany
				}
				else_if = {
					limit = {
						OR = {
							trade_goods = grain
							trade_goods = livestock
							trade_goods = wine
						}
					}
					has_building = farm_estate
				}
				else_if = {
					limit = {
						OR = {
							trade_goods = paper
							trade_goods = gems
							trade_goods = tropical_wood
							trade_goods = glass
							trade_goods = chinaware
						}
					}
					has_building = mills
				}
				else_if = {
					limit = {
						trade_goods = coal
					}
					has_building = furnace
				}
				else = {
					has_building = plantations
				}
			}
		}
    }
    task_completed_effect = {
		add_estate_loyalty = {
			estate = estate_artificers
			loyalty = 10
		}
		event_target:agenda_province = {
			add_base_production = 1
			add_province_modifier = {
				name = prospering_production
				duration = 5475
			}
		}
    }
    failing_effect = {
		event_target:agenda_province = {
			if = {
				limit = { owned_by = root }
				add_named_unrest = {
					name = local_artificers_displeased
					value = 5
				}
			}
		}
        add_estate_loyalty_modifier = {
            estate = estate_artificers
			desc = EST_VAL_AGENDA_DENIED
			loyalty = -5
			duration = 7300
        }
    }
}

#Develop Damestear province in y
estate_artificers_develop_damestear_in_y = {
	selection_weight = {
		factor = 1
	}
	can_select = {
		any_owned_province = {
			trade_goods = damestear
		}
	}
	pre_effect = {
		random_owned_province = {
			limit = {
				trade_goods = damestear
			}
			save_event_target_as = agenda_province
		}
		event_target:agenda_province = {
			if = {
				limit = {
					check_variable = {
						which = province_dip_var
						value = 1
					}
				}
				set_variable = {
					which = province_dip_var
					value = 0
				}
			}
			export_to_variable = {
				which = province_dip_var
				value = trigger_value:base_production
			}
			change_variable = {
				which = province_dip_var
				value = 2
			}
		}
	}
	provinces_to_highlight = {
		province_id = event_target:agenda_province
	}
	fail_if = {
		event_target:agenda_province = {
			NOT = { owned_by = root }
		}
	}
    task_requirements = {
		event_target:agenda_province = {
			base_production = "province_dip_var"
		}
    }
    task_completed_effect = {
		add_estate_loyalty = {
			estate = estate_artificers
			loyalty = 10
		}
		add_years_of_income = 0.3
    }
    failing_effect = {
		event_target:agenda_province = {
			if = {
				limit = { owned_by = root }
				add_named_unrest = {
					name = local_artificers_displeased
					value = 5
				}
			}
		}
        add_estate_loyalty_modifier = {
            estate = estate_artificers
			desc = EST_VAL_AGENDA_DENIED
			loyalty = -5
			duration = 7300
        }
    }
}

#Develop Precursor Relics province in y
estate_artificers_develop_precursor_relics_in_y = {
	selection_weight = {
		factor = 1
	}
	can_select = {
		any_owned_province = {
			trade_goods = precursor_relics
		}
	}
	pre_effect = {
		random_owned_province = {
			limit = {
				trade_goods = precursor_relics
			}
			save_event_target_as = agenda_province
		}
		event_target:agenda_province = {
			if = {
				limit = {
					check_variable = {
						which = province_dip_var
						value = 1
					}
				}
				set_variable = {
					which = province_dip_var
					value = 0
				}
			}
			export_to_variable = {
				which = province_dip_var
				value = trigger_value:base_production
			}
			change_variable = {
				which = province_dip_var
				value = 2
			}
		}
	}
	provinces_to_highlight = {
		province_id = event_target:agenda_province
	}
	fail_if = {
		event_target:agenda_province = {
			NOT = { owned_by = root }
		}
	}
    task_requirements = {
		event_target:agenda_province = {
			base_production = "province_dip_var"
		}
    }
    task_completed_effect = {
		add_estate_loyalty = {
			estate = estate_artificers
			loyalty = 10
		}
		add_years_of_income = 0.3
    }
    failing_effect = {
		event_target:agenda_province = {
			if = {
				limit = { owned_by = root }
				add_named_unrest = {
					name = local_artificers_displeased
					value = 5
				}
			}
		}
        add_estate_loyalty_modifier = {
            estate = estate_artificers
			desc = EST_VAL_AGENDA_DENIED
			loyalty = -5
			duration = 7300
        }
    }
}

#Develop x province
estate_artificers_develop_x = {
	selection_weight = {
		factor = 1
	}
	can_select = {
		capital_scope = {
			is_state_core = root
		}
	}
	pre_effect = {
		random_list = {
			1 = {
				random_owned_province = {
					limit = {
						is_state_core = root
						area_for_scope_province = {
							is_capital_of = root
						}
					}
					save_event_target_as = agenda_province
				}
			}
			2 = {
				trigger = {
					any_owned_province = {
						is_state_core = root
						OR = {
							AND = {
								religion = root
								OR = {
									culture = root
									has_owner_accepted_culture = yes
								}
							}
						}
						region_for_scope_province = {
							is_capital_of = root
						}
					}
				}
				random_owned_province = {
					limit = {
						is_state_core = root
						OR = {
							AND = {
								religion = root
								OR = {
									culture = root
									has_owner_accepted_culture = yes
								}
							}
						}
						region_for_scope_province = {
							is_capital_of = root
						}
					}
					save_event_target_as = agenda_province
				}
			}
			1 = {
				random_owned_province = {
					limit = {
						is_state_core = root
					}
					save_event_target_as = agenda_province
				}
			}
		}
		event_target:agenda_province = {
			if = {
				limit = {
					check_variable = {
						which = province_dip_var
						value = 1
					}
				}
				set_variable = {
					which = province_dip_var
					value = 0
				}
			}
			export_to_variable = {
				which = province_dip_var
				value = trigger_value:base_production
			}
			change_variable = {
				which = province_dip_var
				value = 2
			}
		}
	}
	provinces_to_highlight = {
		province_id = event_target:agenda_province
	}
	fail_if = {
		event_target:agenda_province = {
			NOT = { owned_by = root }
		}
	}
    task_requirements = {
		event_target:agenda_province = {
			base_production = "province_dip_var"
		}
    }
    task_completed_effect = {
		add_estate_loyalty = {
			estate = estate_artificers
			loyalty = 10
		}
		add_years_of_income = 0.3
    }
    failing_effect = {
		event_target:agenda_province = {
			if = {
				limit = { owned_by = root }
				add_named_unrest = {
					name = local_artificers_displeased
					value = 5
				}
			}
		}
        add_estate_loyalty_modifier = {
            estate = estate_artificers
			desc = EST_VAL_AGENDA_DENIED
			loyalty = -5
			duration = 7300
        }
    }
}
