#104 - Milan | 

owner = A14
controller = A14
add_core = A14
culture = low_lorentish
religion = regent_court

hre = no

base_tax = 3
base_production = 4
base_manpower = 2

trade_goods = livestock

capital = ""

is_city = yes







