#339 - Valencia |

owner = A13
controller = A13
add_core = A13
add_core = A51
culture = gawedi
religion = regent_court

hre = no

base_tax = 4
base_production = 4
base_manpower = 3
trade_goods = grain

capital = ""

is_city = yes









