#386 - Asir

owner = F07
controller = F07
add_core = F07
culture = far_akani
religion = mother_akan

hre = no

base_tax = 5
base_production = 7
base_manpower = 5

trade_goods = slaves

capital = ""

is_city = yes







