#553 - Tunkalem

owner = F21
controller = F21
add_core = F21
culture = sun_elf
religion = bulwari_sun_cult

base_tax = 2
base_production = 2
base_manpower = 2

trade_goods = wool

capital = ""











add_permanent_province_modifier = {
	name = human_minority_oppressed_small
	duration = -1
}