# No previous file for Estshore
owner = Z32
controller = Z32
add_core = Z32
culture = blue_reachman
religion = regent_court

hre = no

base_tax = 3
base_production = 4
base_manpower = 3

trade_goods = fish

capital = ""

is_city = yes






