namespace = diggy_project

#######################
##   Magma Forge
#######################
country_event = {
	id = diggy_project.1
	title = diggy_project.1.t
	desc = diggy_project.1.d
	picture = ARTWORK_eventPicture
	
	is_triggered_only = yes
	major = yes
	
	trigger = {
		always = yes
	}
	
	option = {
        name = diggy_project.1.a
        ai_chance = { factor = 100 }
		add_prestige = 5
		custom_tooltip = start_build_magma_tooltip 
	}
}

country_event = {
	id = diggy_project.2
	title = diggy_project.2.t
	desc = diggy_project.2.d
	picture = ARTWORK_eventPicture
	
	mean_time_to_happen = {
		years = 30
		
		modifier = {
			factor = 0.9
			capital_scope = { has_coexisting_dwarven_pop_trigger = yes }
		}
		modifier = {
			factor = 0.8
			capital_scope = { has_integrated_dwarven_pop_trigger = yes }
		}
		
		modifier = {
			factor = 0.9
			capital_scope = { base_production = 25 }
		}
		
		modifier = {
			factor = 0.9
			capital_scope = { base_production = 30 }
		}
		
		modifier = {
			factor = 0.9
			capital_scope = { base_production = 35 }
		}
		
		modifier = {
			factor = 0.8
			capital_scope = { base_production = 40 }
		}
		modifier = {
			factor = 0.01
			had_country_flag = {
				flag = building_magma_forge
				days = 10950
			}
			has_global_flag = magma_forge_build
		}
	}
	
	trigger = {
		has_country_flag = building_magma_forge
		capital_scope = { has_province_modifier = hold_foundry }
	}
	
	immediate = {
		hidden_effect = {
			capital_scope = { remove_province_modifier = developing_advanced_infrastructure }
		}
	}
	
	option = {
        name = diggy_project.2.a
        ai_chance = { factor = 100 }
		hidden_effect = { clr_country_flag = building_magma_forge }
		hidden_effect = { clr_country_flag = building_diggy }
		hidden_effect = { set_country_flag = builded_magma_forge }
		add_prestige = 15
		if = {
			limit = { NOT = { has_global_flag = magma_forge_build } }
			hidden_effect = { set_global_flag = magma_forge_build }
			custom_tooltip = first_magma_forge_tooltip
			capital_scope = {
				remove_province_modifier = hold_foundry
				add_permanent_province_modifier = {
					name = hold_foundry_2
					duration = -1
				}
				add_permanent_province_modifier = {
					name = magma_forge
					duration = -1
				}
			}
		}
		else = {
			custom_tooltip = normal_magma_forge_tooltip
			capital_scope = {
				remove_province_modifier = hold_foundry
				add_permanent_province_modifier = {
					name = hold_foundry_2
					duration = -1
				}
			}
		}
	}
}
#######################
##   Artificier Hall
#######################
country_event = {
	id = diggy_project.3
	title = diggy_project.3.t
	desc = diggy_project.3.d
	picture = ARTWORK_eventPicture
	
	is_triggered_only = yes
	major = yes
	
	trigger = {
		always = yes
	}
	
	option = {
        name = diggy_project.3.a
        ai_chance = { factor = 100 }
		add_prestige = 5
		custom_tooltip = start_build_artificier_tooltip 
	}
}

country_event = {
	id = diggy_project.4
	title = diggy_project.4.t
	desc = diggy_project.4.d
	picture = ARTWORK_eventPicture
	
	mean_time_to_happen = {
		years = 30
		
		modifier = {
			factor = 0.9
			capital_scope = { has_coexisting_dwarven_pop_trigger = yes }
		}
		modifier = {
			factor = 0.8
			capital_scope = { has_integrated_dwarven_pop_trigger = yes }
		}
		
		modifier = {
			factor = 0.9
			capital_scope = { base_tax = 25 }
		}
		
		modifier = {
			factor = 0.9
			capital_scope = { base_tax = 30 }
		}
		
		modifier = {
			factor = 0.9
			capital_scope = { base_tax = 35 }
		}
		
		modifier = {
			factor = 0.8
			capital_scope = { base_tax = 40 }
		}
		modifier = {
			factor = 0.01
			had_country_flag = {
				flag = building_artificier_hall
				days = 10950
			}
			has_global_flag = artificier_hall_build
		}
	}
	
	trigger = {
		has_country_flag = building_artificier_hall
		capital_scope = { has_province_modifier = hold_city }
	}
	
	immediate = {
		hidden_effect = {
			capital_scope = { remove_province_modifier = developing_advanced_infrastructure }
		}
	}
	
	option = {
        name = diggy_project.4.a
        ai_chance = { factor = 100 }
		hidden_effect = { clr_country_flag = building_artificier_hall }
		hidden_effect = { clr_country_flag = building_diggy }
		add_prestige = 15
		if = {
			limit = { NOT = { has_global_flag = artificier_hall_build } }
			hidden_effect = { set_global_flag = artificier_hall_build }
			custom_tooltip = first_artificier_tooltip
			capital_scope = {
				remove_province_modifier = hold_city
				add_permanent_province_modifier = {
					name = hold_city_2
					duration = -1
				}
				add_permanent_province_modifier = {
					name = artificier_hall
					duration = -1
				}
			}
		}
		else = {
			custom_tooltip = normal_artificier_tooltip
			capital_scope = {
				remove_province_modifier = hold_city
				add_permanent_province_modifier = {
					name = hold_city_2
					duration = -1
				}
			}
		}
	}
}
#######################
##   Engineer Manufactory
#######################
country_event = {
	id = diggy_project.5
	title = diggy_project.5.t
	desc = diggy_project.5.d
	picture = ARTWORK_eventPicture
	
	is_triggered_only = yes
	major = yes
	
	trigger = {
		always = yes
	}
	
	option = {
        name = diggy_project.5.a
        ai_chance = { factor = 100 }
		add_prestige = 5
		custom_tooltip = start_build_artificier_tooltip 
	}
}

country_event = {
	id = diggy_project.6
	title = diggy_project.6.t
	desc = diggy_project.6.d
	picture = ARTWORK_eventPicture
	
	mean_time_to_happen = {
		years = 30
		
		modifier = {
			factor = 0.9
			capital_scope = { has_coexisting_dwarven_pop_trigger = yes }
		}
		modifier = {
			factor = 0.8
			capital_scope = { has_integrated_dwarven_pop_trigger = yes }
		}
		
		modifier = {
			factor = 0.9
			capital_scope = { base_production = 25 }
		}
		
		modifier = {
			factor = 0.9
			capital_scope = { base_production = 30 }
		}
		
		modifier = {
			factor = 0.9
			capital_scope = { base_production = 35 }
		}
		
		modifier = {
			factor = 0.8
			capital_scope = { base_production = 40 }
		}
		modifier = {
			factor = 0.01
			had_country_flag = {
				flag = building_engineer_manufactory
				days = 10950
			}
			has_global_flag = engineer_manufactory_build
		}
	}
	
	trigger = {
		has_country_flag = building_engineer_manufactory
		capital_scope = { has_province_modifier = hold_artisan }
	}
	
	immediate = {
		hidden_effect = {
			capital_scope = { remove_province_modifier = developing_advanced_infrastructure }
		}
	}
	
	option = {
        name = diggy_project.6.a
        ai_chance = { factor = 100 }
		hidden_effect = { clr_country_flag = building_engineer_manufactory }
		hidden_effect = { clr_country_flag = building_diggy }
		add_prestige = 15
		if = {
			limit = { NOT = { has_global_flag = engineer_manufactory_build } }
			hidden_effect = { set_global_flag = engineer_manufactory_build }
			custom_tooltip = first_engineer_tooltip
			capital_scope = {
				remove_province_modifier = hold_artisan
				add_permanent_province_modifier = {
					name = hold_artisan_2
					duration = -1
				}
				add_permanent_province_modifier = {
					name = engineer_manufactory
					duration = -1
				}
			}
		}
		else = {
			custom_tooltip = normal_engineer_tooltip
			capital_scope = {
				remove_province_modifier = hold_artisan
				add_permanent_province_modifier = {
					name = hold_artisan_2
					duration = -1
				}
			}
		}
	}
}
#######################
##   High Gardens
#######################
country_event = {
	id = diggy_project.7
	title = diggy_project.7.t
	desc = diggy_project.7.d
	picture = ARTWORK_eventPicture
	
	is_triggered_only = yes
	major = yes
	
	trigger = {
		always = yes
	}
	
	option = {
        name = diggy_project.7.a
        ai_chance = { factor = 100 }
		add_prestige = 5
		custom_tooltip = start_build_gardens_tooltip 
	}
}

country_event = {
	id = diggy_project.8
	title = diggy_project.8.t
	desc = diggy_project.8.d
	picture = ARTWORK_eventPicture
	
	mean_time_to_happen = {
		years = 30
		
		modifier = {
			factor = 0.9
			capital_scope = { has_coexisting_dwarven_pop_trigger = yes }
		}
		modifier = {
			factor = 0.8
			capital_scope = { has_integrated_dwarven_pop_trigger = yes }
		}
		
		modifier = {
			factor = 0.9
			capital_scope = { base_production = 25 }
		}
		
		modifier = {
			factor = 0.9
			capital_scope = { base_production = 30 }
		}
		
		modifier = {
			factor = 0.9
			capital_scope = { base_production = 35 }
		}
		
		modifier = {
			factor = 0.8
			capital_scope = { base_production = 40 }
		}
		modifier = {
			factor = 0.01
			had_country_flag = {
				flag = building_high_gardens
				days = 10950
			}
			has_global_flag = high_gardens_build
		}
	}
	
	trigger = {
		has_country_flag = building_high_gardens
		capital_scope = { has_province_modifier = hold_farm }
	}
	
	immediate = {
		hidden_effect = {
			capital_scope = { remove_province_modifier = developing_advanced_infrastructure }
		}
	}
	
	option = {
        name = diggy_project.8.a
        ai_chance = { factor = 100 }
		hidden_effect = { clr_country_flag = building_high_gardens }
		hidden_effect = { clr_country_flag = building_diggy }
		add_prestige = 15
		if = {
			limit = { NOT = { has_global_flag = high_gardens_build } }
			hidden_effect = { set_global_flag = high_gardens_build }
			custom_tooltip = first_gardens_tooltip
			capital_scope = {
				remove_province_modifier = hold_farm
				add_permanent_province_modifier = {
					name = hold_farm_2
					duration = -1
				}
				add_permanent_province_modifier = {
					name = high_gardens
					duration = -1
				}
			}
		}
		else = {
			custom_tooltip = normal_gardens_tooltip
			capital_scope = {
				remove_province_modifier = hold_farm
				add_permanent_province_modifier = {
					name = hold_farm_2
					duration = -1
				}
			}
		}
	}
}

#######################
##   Military Academy
#######################
country_event = {
	id = diggy_project.9
	title = diggy_project.9.t
	desc = diggy_project.9.d
	picture = ARTWORK_eventPicture
	
	is_triggered_only = yes
	major = yes
	
	trigger = {
		always = yes
	}
	
	option = {
        name = diggy_project.9.a
        ai_chance = { factor = 100 }
		add_prestige = 5
		custom_tooltip = start_military_academy_tooltip 
	}
}

country_event = {
	id = diggy_project.10
	title = diggy_project.10.t
	desc = diggy_project.10.d
	picture = ARTWORK_eventPicture
	
	mean_time_to_happen = {
		years = 30
		
		modifier = {
			factor = 0.9
			capital_scope = { has_coexisting_dwarven_pop_trigger = yes }
		}
		modifier = {
			factor = 0.8
			capital_scope = { has_integrated_dwarven_pop_trigger = yes }
		}
		
		modifier = {
			factor = 0.9
			capital_scope = { base_manpower = 25 }
		}
		
		modifier = {
			factor = 0.9
			capital_scope = { base_manpower = 30 }
		}
		
		modifier = {
			factor = 0.9
			capital_scope = { base_manpower = 35 }
		}
		
		modifier = {
			factor = 0.8
			capital_scope = { base_manpower = 40 }
		}
		
		modifier = {
			factor = 0.01
			had_country_flag = {
				flag = building_military_academy
				days = 10950
			}
			has_global_flag = military_academy_build
		}
	}
	
	trigger = {
		has_country_flag = building_military_academy
		capital_scope = { has_province_modifier = hold_military }
	}
	
	
	immediate = {
		hidden_effect = {
			capital_scope = { remove_province_modifier = developing_advanced_infrastructure }
		}
	}
	
	option = {
        name = diggy_project.10.a
        ai_chance = { factor = 100 }
		hidden_effect = { clr_country_flag = building_military_academy }
		hidden_effect = { clr_country_flag = building_diggy }
		add_prestige = 15
		if = {
			limit = { NOT = { has_global_flag = military_academy_build } }
			hidden_effect = { set_global_flag = military_academy_build }
			custom_tooltip = first_military_tooltip
			capital_scope = {
				remove_province_modifier = hold_military
				add_permanent_province_modifier = {
					name = hold_military_2
					duration = -1
				}
				add_permanent_province_modifier = {
					name = military_academy
					duration = -1
				}
			}
		}
		else = {
			custom_tooltip = normal_military_tooltip
			capital_scope = {
				remove_province_modifier = hold_military
				add_permanent_province_modifier = {
					name = hold_military_2
					duration = -1
				}
			}
		}
	}
}

#######################
##   Dam thingy
#######################

country_event = {
	id = diggy_project.11
	title = diggy_project.11.t
	desc = diggy_project.11.d
	picture = ARTWORK_eventPicture
	
	is_triggered_only = yes
	
	trigger = {
		always = yes
	}
	
	#Advance construction
	option = {
        name = diggy_project.11.a
        ai_chance = { factor = 100 }
		add_treasury = -12500
		add_adm_power = -100
		676 = {
			add_province_modifier = {
				name = dam_construction
				duration = -1
			}
			trigger_switch = {
				on_trigger = has_province_flag
				
				dam_1 = { custom_tooltip = dam_1_tooltip }
				dam_2 = { custom_tooltip = dam_2_tooltip }
				dam_3 = { custom_tooltip = dam_3_tooltip }
				dam_4 = { custom_tooltip = dam_4_tooltip }
			}
		}
		hidden_effect = { clr_country_flag = dam_menu }
		hidden_effect = { set_country_flag = constructing_dam }
	}
	
	#Go Back
	option = {
        name = diggy_project.11.b
        ai_chance = { factor = 100 }
		hidden_effect = { clr_country_flag = dam_menu }
	}
}
###End construction stage
country_event = {
	id = diggy_project.12
	title = diggy_project.12.t
	desc = diggy_project.12.d
	picture = ARTWORK_eventPicture
	
	mean_time_to_happen = {
		years = 10
		
		modifier = {
			factor = 0.01
			
			had_country_flag = {
				flag = constructing_dam
				days = 1825
			}
		}
	}
	
	trigger = {
		has_country_flag = constructing_dam
		owns = 676
	}
	
	immediate = {
		hidden_effect = { clr_country_flag = constructing_dam }
	}
	
	#Stage done
	option = {
        name = diggy_project.12.a
        ai_chance = { factor = 100 }
		if = {
			limit = {
				676 = { NOT = { has_province_flag = dam_1 } }
			}
			676 = {
				hidden_effect = { set_province_flag = dam_1 }
				add_permanent_province_modifier = {
					name = dam_stage_1
					duration = -1
				}
			}
		}
		else_if = {
			limit = {
				676 = { has_province_flag = dam_1 }
				676 = { NOT = { has_province_flag = dam_2 } }
			}
			676 = {
				hidden_effect = { set_province_flag = dam_2 }
				remove_province_modifier = dam_stage_1
				add_permanent_province_modifier = {
					name = dam_stage_2
					duration = -1
				}
			}
		}
		else_if = {
			limit = {
				676 = { has_province_flag = dam_2 }
				676 = { NOT = { has_province_flag = dam_3 } }
			}
			676 = {
				hidden_effect = { set_province_flag = dam_3 }
				remove_province_modifier = dam_stage_2
				add_permanent_province_modifier = {
					name = dam_stage_3
					duration = -1
				}
			}
		}
		else_if = {
			limit = {
				676 = { has_province_flag = dam_3 }
				676 = { NOT = { has_province_flag = dam_4 } }
			}
			676 = {
				hidden_effect = { set_province_flag = dam_4 }
				remove_province_modifier = dam_stage_3
				add_permanent_province_modifier = {
					name = dam_stage_4
					duration = -1
				}
			}
		}
		else_if = {
			limit = {
				676 = { has_province_flag = dam_4 }
				676 = { NOT = { has_province_flag = dam_5 } }
			}
			676 = {
				hidden_effect = { set_province_flag = dam_5 }
				remove_province_modifier = dam_stage_4
				add_permanent_province_modifier = {
					name = the_harpylen_dam
					duration = -1
				}
			}
			add_prestige = 50
			add_splendor = 100
			custom_tooltip = the_harpylen_dam_tooltip
			hidden_effect = { set_global_flag = harpylen_dam_build }
		}
		676 = { remove_province_modifier = dam_construction }
	}
}